{
  "code": 200,
  "message": "Success",
  "data": {
    "items": [
      {
        "id": 1,
        "name": "Item 1",
        "description": "Description of Item 1",
        "created_at": "2024-08-12T12:34:56Z"
      },
      {
        "id": 2,
        "name": "Item 2",
        "description": "Description of Item 2",
        "created_at": "2024-08-11T11:33:55Z"
      }
    ],
    "pagination": {
      "total_items": 100,
      "total_pages": 10,
      "current_page": 1,
      "items_per_page": 10,
      "has_next_page": true,
      "has_previous_page": false
    },
    "filters": {
      "search": "item",
      "sort_by": "created_at",
      "sort_order": "desc",
      "category": "electronics"
    }
  }
}
